{
	"ImportPath": "food-us",
	"GoVersion": "go1.2",
	"Deps": [
		{
			"ImportPath": "github.com/codegangsta/inject",
			"Rev": "9aea7a2fa5b79ef7fc00f63a575e72df33b4e886"
		},
		{
			"ImportPath": "github.com/go-martini/martini",
			"Comment": "v1.0-rc1",
			"Rev": "de643861770082784ad14cba4557ad68568dcc7b"
		},
		{
			"ImportPath": "github.com/martini-contrib/cors",
			"Rev": "66f078ea4c64d183a8993a755c6aa4dad527d51f"
		},
		{
			"ImportPath": "github.com/martini-contrib/render",
			"Rev": "870b5a6054ac0e6f2731a27f6156b93c8dd45e4b"
		}
	]
}
